\relax 
\providecommand\hyper@newdestlabel[2]{}
\providecommand*\new@tpo@label[2]{}
\@nameuse{bbl@beforestart}
\catcode `"\active 
\providecommand\HyperFirstAtBeginDocument{\AtBeginDocument}
\HyperFirstAtBeginDocument{\ifx\hyper@anchor\@undefined
\global\let\oldcontentsline\contentsline
\gdef\contentsline#1#2#3#4{\oldcontentsline{#1}{#2}{#3}}
\global\let\oldnewlabel\newlabel
\gdef\newlabel#1#2{\newlabelxx{#1}#2}
\gdef\newlabelxx#1#2#3#4#5#6{\oldnewlabel{#1}{{#2}{#3}}}
\AtEndDocument{\ifx\hyper@anchor\@undefined
\let\contentsline\oldcontentsline
\let\newlabel\oldnewlabel
\fi}
\fi}
\global\let\hyper@last\relax 
\gdef\HyperFirstAtBeginDocument#1{#1}
\providecommand\HyField@AuxAddToFields[1]{}
\providecommand\HyField@AuxAddToCoFields[2]{}
\providecommand\BKM@entry[2]{}
\abx@aux@refcontext{nty/global//global/global}
\BKM@entry{id=1,dest={73656374696F6E2E31},srcline={42}}{45696E6C656974756E67}
\BKM@entry{id=2,dest={73756273656374696F6E2E312E31},srcline={67}}{416E77656E64756E677368696E7465726772756E64}
\abx@aux@cite{NoKill}
\abx@aux@segm{0}{0}{NoKill}
\abx@aux@cite{TSB}
\abx@aux@segm{0}{0}{TSB}
\abx@aux@cite{NoKill90}
\abx@aux@segm{0}{0}{NoKill90}
\@writefile{toc}{\boolfalse {citerequest}\boolfalse {citetracker}\boolfalse {pagetracker}\boolfalse {backtracker}\relax }
\@writefile{lof}{\boolfalse {citerequest}\boolfalse {citetracker}\boolfalse {pagetracker}\boolfalse {backtracker}\relax }
\@writefile{lot}{\boolfalse {citerequest}\boolfalse {citetracker}\boolfalse {pagetracker}\boolfalse {backtracker}\relax }
\babel@aux{german}{}
\@writefile{toc}{\defcounter {refsection}{0}\relax }\@writefile{toc}{\contentsline {section}{\numberline {1}Einleitung}{1}{section.1}\protected@file@percent }
\abx@aux@cite{Kittenzeit}
\abx@aux@segm{0}{0}{Kittenzeit}
\BKM@entry{id=3,dest={73756273656374696F6E2E312E32},srcline={92}}{5A69656C6772757070656E}
\@writefile{toc}{\defcounter {refsection}{0}\relax }\@writefile{toc}{\contentsline {subsection}{\numberline {1.1}Anwendungshintergrund}{2}{subsection.1.1}\protected@file@percent }
\@writefile{toc}{\defcounter {refsection}{0}\relax }\@writefile{toc}{\contentsline {subsection}{\numberline {1.2}Zielgruppen}{2}{subsection.1.2}\protected@file@percent }
\BKM@entry{id=4,dest={73756273656374696F6E2E312E33},srcline={103}}{5C333334626572626C69636B20756E642042656974725C3334346765}
\BKM@entry{id=5,dest={73656374696F6E2E32},srcline={137}}{446174656E}
\abx@aux@cite{AustinOD}
\abx@aux@segm{0}{0}{AustinOD}
\abx@aux@cite{Kaggle}
\abx@aux@segm{0}{0}{Kaggle}
\@writefile{toc}{\defcounter {refsection}{0}\relax }\@writefile{toc}{\contentsline {subsection}{\numberline {1.3}Überblick und Beiträge}{3}{subsection.1.3}\protected@file@percent }
\@writefile{toc}{\defcounter {refsection}{0}\relax }\@writefile{toc}{\contentsline {section}{\numberline {2}Daten}{3}{section.2}\protected@file@percent }
\abx@aux@cite{STRF}
\abx@aux@segm{0}{0}{STRF}
\abx@aux@cite{CPC}
\abx@aux@segm{0}{0}{CPC}
\abx@aux@cite{CPCIdent}
\abx@aux@segm{0}{0}{CPCIdent}
\abx@aux@cite{CPCVis}
\abx@aux@segm{0}{0}{CPCVis}
\abx@aux@cite{AustinODIn}
\abx@aux@segm{0}{0}{AustinODIn}
\abx@aux@cite{AustinODOut}
\abx@aux@segm{0}{0}{AustinODOut}
\BKM@entry{id=6,dest={73656374696F6E2E33},srcline={323}}{56697375616C6973696572756E67656E}
\BKM@entry{id=7,dest={73756273656374696F6E2E332E31},srcline={324}}{416E616C7973652064657220416E77656E64756E6773617566676162656E}
\@writefile{toc}{\defcounter {refsection}{0}\relax }\@writefile{toc}{\contentsline {section}{\numberline {3}Visualisierungen}{7}{section.3}\protected@file@percent }
\@writefile{toc}{\defcounter {refsection}{0}\relax }\@writefile{toc}{\contentsline {subsection}{\numberline {3.1}Analyse der Anwendungsaufgaben}{7}{subsection.3.1}\protected@file@percent }
\BKM@entry{id=8,dest={73756273656374696F6E2E332E32},srcline={372}}{416E666F72646572756E67656E20616E206469652056697375616C6973696572756E67656E}
\BKM@entry{id=9,dest={73756273656374696F6E2E332E33},srcline={408}}{50725C33343473656E746174696F6E206465722056697375616C6973696572756E67656E}
\BKM@entry{id=10,dest={73756273756273656374696F6E2E332E332E31},srcline={424}}{56697375616C6973696572756E672045696E73}
\@writefile{toc}{\defcounter {refsection}{0}\relax }\@writefile{toc}{\contentsline {subsection}{\numberline {3.2}Anforderungen an die Visualisierungen}{8}{subsection.3.2}\protected@file@percent }
\@writefile{toc}{\defcounter {refsection}{0}\relax }\@writefile{toc}{\contentsline {subsection}{\numberline {3.3}Präsentation der Visualisierungen}{8}{subsection.3.3}\protected@file@percent }
\abx@aux@cite{Inferno}
\abx@aux@segm{0}{0}{Inferno}
\abx@aux@cite{Preattentive}
\abx@aux@segm{0}{0}{Preattentive}
\@writefile{toc}{\defcounter {refsection}{0}\relax }\@writefile{toc}{\contentsline {subsubsection}{\numberline {3.3.1}Visualisierung Eins}{9}{subsubsection.3.3.1}\protected@file@percent }
\BKM@entry{id=11,dest={73756273756273656374696F6E2E332E332E32},srcline={514}}{56697375616C6973696572756E67205A776569}
\@writefile{toc}{\defcounter {refsection}{0}\relax }\@writefile{toc}{\contentsline {subsubsection}{\numberline {3.3.2}Visualisierung Zwei}{10}{subsubsection.3.3.2}\protected@file@percent }
\abx@aux@cite{Preattentive}
\abx@aux@segm{0}{0}{Preattentive}
\BKM@entry{id=12,dest={73756273756273656374696F6E2E332E332E33},srcline={583}}{56697375616C6973696572756E672044726569}
\@writefile{toc}{\defcounter {refsection}{0}\relax }\@writefile{toc}{\contentsline {subsubsection}{\numberline {3.3.3}Visualisierung Drei}{12}{subsubsection.3.3.3}\protected@file@percent }
\BKM@entry{id=13,dest={73756273656374696F6E2E332E34},srcline={645}}{496E746572616B74696F6E}
\@writefile{toc}{\defcounter {refsection}{0}\relax }\@writefile{toc}{\contentsline {subsection}{\numberline {3.4}Interaktion}{13}{subsection.3.4}\protected@file@percent }
\newlabel{Interaktion}{{3.4}{13}{Interaktion}{subsection.3.4}{}}
\BKM@entry{id=14,dest={73656374696F6E2E34},srcline={687}}{496D706C656D656E74696572756E67}
\@writefile{toc}{\defcounter {refsection}{0}\relax }\@writefile{toc}{\contentsline {section}{\numberline {4}Implementierung}{14}{section.4}\protected@file@percent }
\newlabel{model}{{1}{15}{Model}{lstlisting.1}{}}
\@writefile{lol}{\defcounter {refsection}{0}\relax }\@writefile{lol}{\contentsline {lstlisting}{\numberline {1}Model}{15}{lstlisting.1}\protected@file@percent }
\BKM@entry{id=15,dest={73656374696F6E2E35},srcline={796}}{416E77656E64756E6773665C3334346C6C65}
\BKM@entry{id=16,dest={73756273656374696F6E2E352E31},srcline={805}}{416E77656E64756E672056697375616C6973696572756E672045696E73}
\@writefile{toc}{\defcounter {refsection}{0}\relax }\@writefile{toc}{\contentsline {section}{\numberline {5}Anwendungsfälle}{16}{section.5}\protected@file@percent }
\@writefile{toc}{\defcounter {refsection}{0}\relax }\@writefile{toc}{\contentsline {subsection}{\numberline {5.1}Anwendung Visualisierung Eins}{16}{subsection.5.1}\protected@file@percent }
\@writefile{lof}{\defcounter {refsection}{0}\relax }\@writefile{lof}{\contentsline {figure}{\numberline {1}{\ignorespaces pixel-orientierte Darstellung: Anzahl Aufnahmen von Katzen pro Tag, Mai bis September grün markiert in der Mitte}}{17}{figure.1}\protected@file@percent }
\newlabel{fig:kittenzeit}{{1}{17}{pixel-orientierte Darstellung: Anzahl Aufnahmen von Katzen pro Tag, Mai bis September grün markiert in der Mitte}{figure.1}{}}
\@writefile{lof}{\defcounter {refsection}{0}\relax }\@writefile{lof}{\contentsline {figure}{\numberline {2}{\ignorespaces pixel-orientierte Darstellung: Anzahl Abgaben von Katzen pro Tag}}{17}{figure.2}\protected@file@percent }
\newlabel{fig:outcomesKatzen}{{2}{17}{pixel-orientierte Darstellung: Anzahl Abgaben von Katzen pro Tag}{figure.2}{}}
\BKM@entry{id=17,dest={73756273656374696F6E2E352E32},srcline={865}}{416E77656E64756E672056697375616C6973696572756E67205A776569}
\BKM@entry{id=18,dest={73756273656374696F6E2E352E33},srcline={899}}{416E77656E64756E672056697375616C6973696572756E672044726569}
\@writefile{toc}{\defcounter {refsection}{0}\relax }\@writefile{toc}{\contentsline {subsection}{\numberline {5.2}Anwendung Visualisierung Zwei}{18}{subsection.5.2}\protected@file@percent }
\@writefile{toc}{\defcounter {refsection}{0}\relax }\@writefile{toc}{\contentsline {subsection}{\numberline {5.3}Anwendung Visualisierung Drei}{18}{subsection.5.3}\protected@file@percent }
\@writefile{lof}{\defcounter {refsection}{0}\relax }\@writefile{lof}{\contentsline {figure}{\numberline {3}{\ignorespaces Mosaik-Plot über die Zusammensetzung aller Aufnahmen}}{19}{figure.3}\protected@file@percent }
\newlabel{fig:mosaikplot}{{3}{19}{Mosaik-Plot über die Zusammensetzung aller Aufnahmen}{figure.3}{}}
\@writefile{lof}{\defcounter {refsection}{0}\relax }\@writefile{lof}{\contentsline {figure}{\numberline {4}{\ignorespaces Tage im Tierheim für Katzen verschiedener Farben und Musterungen, nur Hauptfarben und -musterungen der Katze}}{20}{figure.4}\protected@file@percent }
\newlabel{fig:boxplotkatzenfarben}{{4}{20}{Tage im Tierheim für Katzen verschiedener Farben und Musterungen, nur Hauptfarben und -musterungen der Katze}{figure.4}{}}
\BKM@entry{id=19,dest={73656374696F6E2E36},srcline={934}}{56657277616E64746520417262656974656E}
\abx@aux@cite{Sheltering}
\abx@aux@segm{0}{0}{Sheltering}
\abx@aux@cite{Rodriguez2022}
\abx@aux@segm{0}{0}{Rodriguez2022}
\abx@aux@cite{Kremer2021}
\abx@aux@segm{0}{0}{Kremer2021}
\@writefile{toc}{\defcounter {refsection}{0}\relax }\@writefile{toc}{\contentsline {section}{\numberline {6}Verwandte Arbeiten}{21}{section.6}\protected@file@percent }
\BKM@entry{id=20,dest={73656374696F6E2E37},srcline={999}}{5A7573616D6D656E66617373756E6720756E6420417573626C69636B}
\@writefile{toc}{\defcounter {refsection}{0}\relax }\@writefile{toc}{\contentsline {section}{\numberline {7}Zusammenfassung und Ausblick}{22}{section.7}\protected@file@percent }
\BKM@entry{id=21,dest={73656374696F6E2E38},srcline={1028}}{416E68616E673A20706978656C2D626173696572746520546563686E696B3A204175666E61686D656E20756E64204162676162656E}
\@writefile{toc}{\defcounter {refsection}{0}\relax }\@writefile{toc}{\contentsline {section}{\numberline {8}Anhang: pixel-basierte Technik: Aufnahmen und Abgaben}{23}{section.8}\protected@file@percent }
\@writefile{lof}{\defcounter {refsection}{0}\relax }\@writefile{lof}{\contentsline {figure}{\numberline {5}{\ignorespaces Aufnahmen und Abgaben pro Tag für alle Tiere, größte Anzahl: 209 Abgaben am 09.07.2016}}{24}{figure.5}\protected@file@percent }
\newlabel{fig:intakesoutcomesall}{{5}{24}{Aufnahmen und Abgaben pro Tag für alle Tiere, größte Anzahl: 209 Abgaben am 09.07.2016}{figure.5}{}}
\@writefile{lof}{\defcounter {refsection}{0}\relax }\@writefile{lof}{\contentsline {figure}{\numberline {6}{\ignorespaces Aufnahmen und Abgaben pro Tag für Hunde, größte Anzahl: 88 Abgaben am 03.10.2017}}{25}{figure.6}\protected@file@percent }
\newlabel{fig:intakesoutcomesdogs}{{6}{25}{Aufnahmen und Abgaben pro Tag für Hunde, größte Anzahl: 88 Abgaben am 03.10.2017}{figure.6}{}}
\BKM@entry{id=22,dest={73656374696F6E2E39},srcline={1044}}{416E68616E673A20426F782D506C6F743A20416C746572206465732054696572657320626569204175666E61686D65}
\BKM@entry{id=23,dest={73656374696F6E2E3130},srcline={1055}}{416E68616E673A204769742D486973746F726965}
\@writefile{toc}{\defcounter {refsection}{0}\relax }\@writefile{toc}{\contentsline {section}{\numberline {9}Anhang: Box-Plot: Alter des Tieres bei Aufnahme}{26}{section.9}\protected@file@percent }
\@writefile{lof}{\defcounter {refsection}{0}\relax }\@writefile{lof}{\contentsline {figure}{\numberline {7}{\ignorespaces Tage im Tierheim für Tiere verschiedener Altersgruppen bei der Aufnahme}}{26}{figure.7}\protected@file@percent }
\newlabel{fig:BoxPlotAgeGroup}{{7}{26}{Tage im Tierheim für Tiere verschiedener Altersgruppen bei der Aufnahme}{figure.7}{}}
\@writefile{toc}{\defcounter {refsection}{0}\relax }\@writefile{toc}{\contentsline {section}{\numberline {10}Anhang: Git-Historie}{26}{section.10}\protected@file@percent }
\abx@aux@refcontextdefaultsdone
\abx@aux@defaultrefcontext{0}{CPCVis}{nty/global//global/global}
\abx@aux@defaultrefcontext{0}{AustinODIn}{nty/global//global/global}
\abx@aux@defaultrefcontext{0}{AustinODOut}{nty/global//global/global}
\abx@aux@defaultrefcontext{0}{NoKill}{nty/global//global/global}
\abx@aux@defaultrefcontext{0}{AustinOD}{nty/global//global/global}
\abx@aux@defaultrefcontext{0}{Sheltering}{nty/global//global/global}
\abx@aux@defaultrefcontext{0}{TSB}{nty/global//global/global}
\abx@aux@defaultrefcontext{0}{CPCIdent}{nty/global//global/global}
\abx@aux@defaultrefcontext{0}{Kittenzeit}{nty/global//global/global}
\abx@aux@defaultrefcontext{0}{Kremer2021}{nty/global//global/global}
\abx@aux@defaultrefcontext{0}{CPC}{nty/global//global/global}
\abx@aux@defaultrefcontext{0}{Kaggle}{nty/global//global/global}
\abx@aux@defaultrefcontext{0}{Rodriguez2022}{nty/global//global/global}
\abx@aux@defaultrefcontext{0}{STRF}{nty/global//global/global}
\abx@aux@defaultrefcontext{0}{Inferno}{nty/global//global/global}
\abx@aux@defaultrefcontext{0}{Preattentive}{nty/global//global/global}
\abx@aux@defaultrefcontext{0}{NoKill90}{nty/global//global/global}
